Lovett; Lori,M&E - Engineering,,,BART Engineering,,,,,,Assistant Chief Engineering Officer,(510) 464-6578,(510) 414-9085,,llovett@bart.gov
Holmes; Carl,Capital Projects,Program Management,,Program Management,,,,,,Group Manager Capital Programs,(510) 464-7592,(510) 501-3928,,cholmes@bart.gov
Beckford; Howard,Capital Projects,Program Management,,Program Management,,,,,,Program Management Manager,(510) 287-4718,(510) 406-9789,,hbeckfo@bart.gov
Chan; Jennifer,Capital Projects,,,Program Management,,,,,,Program Manager,(510) 464-4908,(510) 407-3878,,jchan@bart.gov
Portillo; Sharon,Budget,,,Program Mgmt. - Budget,,,,,,Financial Analyst,(510) 464-4832,,,sportil@bart.gov
Fleming; Gary,M&E,,,Elec/Mech Engineering,,,,,,Group Manager Electrical/Mechanical,4798,(510) 407-2477,,gflemin@bart.gov
Ulloa; Juan,M&E,Electrical Engineering,,Electrical Engineering,,,,,,Electrical Engineering Division Manager,4781,(510) 407-1871,,julloa@bart.gov
To be identified,M&E,Mechanical Engineering,,Mechanical Engineering,,,,,,Mechanical Engineering Division Manager,,,,
San; Myat,M&E,Traction Power Engineering,,TPS M&E,,,,,,Traction Power Engineering Division Manager,,(510) 407-2476,,msan@bart.gov
Hessab; Reza,M&E,,Assets,TPS Owner,,,,,,Traction Power Assets Manager,(510) 464-6685,(510) 915-5983,,rhessab@bart.gov
Sims; Steve,M&E,,Projects,TPS Project Execution,,,,,,Traction Power Projects Manager/TPS Rplc PM,(510) 464-6417,(510) 381-4544,,ssims@bart.gov
Davis; Lee,M&E,,,TPS Project Admin,,,,,,Traction Power Projects Administration,(510) 464-6603,(916) 462-1242,,llee@bart.gov
Chopra; BJ,M&E,,Proj Engnr.,TPS Project Design,,,M-RR TP-010,,,TP-010 PM,,(925) 788-2871,,bchopra@bart.gov
Banerjee; Anirban,M&E,,Proj Engnr.,TPS Project Design,,,M-RR TP-011,,,TP-011 PM,,,,abanerj@bart.gov
Ho; Hong,M&E,,Proj Engnr.,TPS Project Design,,,M-RR TP-012,,,TP-012 PM,,,,hhong@bart.gov
Wong; Gordon,M&E,,,TPS Project Design - cables,,,HV/FO Cables,,,HV/FO Cable Repl PM,,(415) 640-3813,,gwong@bart.gov
Austria; Victor,M&E,,,TPS Project Design - cables,,,MV/FO Cables,,,TCCP PM,6687,510-368-4585,,vaustri@bart.gov
Wernli; Alex,M&E,,Proj. Engnr.,TPS Project Design,,,CCIP,,,TCCP PM,6687,510-418-8494,,awernli@bart.gov
,,,,,,,,,,,,,,
Venturato; Anthony,,,,TPS Project Oversight,STV,,,,,Oversight Program Manager,(510) 350-0076,(832) 922-0925,,anthony.venturato@stvinc.com
Menaker; Paul,,,,TPS Project Oversight,STV,,,,,Oversight Project Manager,(510) 350-0110,(925) 336-0866,,paul.menaker@stvinc.com
Raines; Eula,,,,TPS Project Oversight,STV,,,,,Assistant Oversight PM,(510) 350-0087,,,eula.raines@stvinc.com
Fish; John,,,,TPS Project Oversight,STV,,,,,Lead Traction Power Oversight Engineer,(614) 602-5803,(347) 514-0833,,john.fish@stvinc.com
Stell; Ben,,,,TPS Project Oversight,STV,,,,,Traction Power Oversight Engineer,(215) 832-3563,(215) 287-3561,,benjamin.stell@stvinc.com
Luey; Ja-Mie,,,,TPS Project Oversight,STV,,,,,Traction Power Oversight Support,(503) 660-4022,(503) 278-0720,,ja-mie.luey@stvinc.com
Spratt; Stephen,,,,TPS Project Oversight,STV,,,,,Traction Power Oversight Support,(503) 660-4023,(503) 260-6241,,steven.spratt@stvinc.com
Fish; Earl,,,,TPS Project Oversight,STV,,,,,Traction Power Oversight Support,(212) 614-3336,(203) 300-2125,,earl.fish@stvinc.com
Velsor; Ken,,,,TPS Project Oversight,STV,,,,,ETTS Oversight Engineer,,(646) 341-1622,,kenneth.velsor@stvinc.com
Creswell; Ronald,,,,TPS Project Oversight,STV,,,,,Communications Oversight Engineer,(510) 350-0096,(510) 552-0171,,ronald.creswell@stvinc.com
Nolan; Eric,,,,TPS Project Oversight,STV,,,,,Communications Oversight Support,(510) 350-0090,(571) 327-6579,,eric.nolan@stvinc.com
Tu; Sammy,,,,TPS Project Oversight,STV,,,,,Structural Oversight Engineer,(510) 350-0103,(510) 410) 9326,,sanliang.tu@stvinc.com
Zhong; Jinquan,,,,TPS Project Oversight,STV,,,,,Structural Oversight Support,(510) 350-XXXX,,,jinquan.zhong@stvinc.com
Naor; Eli,,,,TPS Project Oversight,STV,,,,,Lead Architectural Oversight Engineer,(510) 350-0100,(510) 914-4609,,eli.naor@stvinc.com
Anderson; Jennifer,,,,TPS Project Oversight,STV,,,,,Architectural Oversight Engineer,(510) 350-0082,,,jennifer.anderson@stvinc.com
Marcus; David,,,,TPS Project Oversight,STV,,,,,Oversight Project Administrator,(510) 350-0091,(510) 846-2089,,david.marcus@stvinc.com
Zostant; Tom,,,,TPS Project Oversight,STV,,,,,Oversight Estimator,,(704) 840-0509,,thomas.zostant@stvinc.com
Haas; Steven,,,,TPS Project Oversight,,WMH,,,,PM - Civil Oversight,(510) 698-6300,(510) 846-2433,,shaas@wmhcorporation.com
Azarmi; Kevin,,,,TPS Project Oversight,,WMH,,,,,(510) 698-6300,(925) 786-5607,,kazarmi@wmhcorporation.com
Mallillin; Patrick,,,,TPS Project Oversight,,YEI Engineers; Inc.,,,,Mechanical Oversight Engineer,,,,
Hayes; B.,,,,TPS Project Oversight,,YEI Engineers; Inc.,,,,Mechanical Oversight Support,,,,
Hildago; H.,,,,TPS Project Oversight,,YEI Engineers; Inc.,,,,Mechanical Oversight Support,,,,
Penry; Frank,,,,TPS Project Oversight,,CHS Consulting,,,,Lead Traffic Oversight Engineer,,,,
Khadem; Soroush,,,,TPS Project Oversight,,CHS Consulting,,,,Traffic Oversight Engineer,,,,
Parikh; Gary,,,,TPS Project Oversight,,Parikh Consultants; Inc.,,,,PM - Geotech Oversight,(408) 452-9000,(408) 595-2525,,gparikh@parikhnet.com
Wang; David,,,,TPS Project Oversight,,Parikh Consultants; Inc.,,,,Lead Geotech Oversight Engineer,,,,
Wang; Frank,,,,TPS Project Oversight,,Parikh Consultants; Inc.,,,,Geotech Oversight Engineer,,,,
Ortakci; A. Emre,,,,TPS Project Oversight,,Parikh Consultants; Inc.,,,,Geotech Oversight Engineer,,,,
Chaphaklar; Pradeep,,,,TPS Project Oversight,,Pradeep Consulting Services,,,,PM - Project Controls  & Risk Manager,,626-354-9074,,pradeep@pradeepconsulting.com
Shetty; Adarsh,,,,TPS Project Oversight,,Pradeep Consulting Services,,,,Project Controls & Scheduler,,,,
Orman; Alexandra ,,,,TPS Project Oversight,,Pradeep Consulting Services,,,,Admin.,,,,alexandra.orman@pradeepconsulting.com
Sucalit; Leslie,,,,TPS Project Oversight,,Pradeep Consulting Services,,,,Document Controls,,(415) 298-2924,,leslie.sucalit@pradeepconsulting.com
Gilliam; Keith,,,,TPS Project Oversight,,QEI,,,,Quality Assurance,(510) 301-9185,(510) 377-6050,,kgilliam@qecorp.com
Ralston; Steve,,,,TPS Project Oversight,,QEI,,,,Quality Assurance,,,,
Zarembinski; Larry,,,,TPS Project Oversight,,QEI,,,,Quality Assurance,,,,
Tavaf; Shari,,,,TPS Project Oversight,,STRATA E.C.; LLC,,,,Safety & Security  Oversight Engineer,,(510) 931-9393,,shari@stradaec.com
,,,,,,,,,,,,,,
Mercurio; Etty,,,,TPS Project Design,,,M-RR-TP-011,AECOM,,Design Program Manager,(510) 874-1773,(925) 980-2253,,etty.mercurio@aecom.com
Tolentino; Tom,,,,TPS Project Design,,,M-RR-TP-011,AECOM,,TP-011 Design PM,,(510) 435-4824,,tom.tolentino@aecom.com
Keremo; Hailu,,,,TPS Project Design,,,M-RR-TP-011,AECOM,,Traction Power Design Lead,(510) 874-1757,(415) 794-0478,,hailu.keremo@aecom.com
Goward; Dean,,,,TPS Project Design,,,M-RR-TP-011,AECOM,,Traction Power Designer,(510) 874-3166,(510) 207-3201,,dean.goward@aecom.com
Welander; Ivan,,,,TPS Project Design,,,M-RR-TP-011,AECOM,,Traction Power Design Engineer,(510) 874-3197,,,ivan.welander@aecom.com
Belardo; Rey,,,,TPS Project Design,,,M-RR-TP-011,AECOM,,Traction Power Design QC,(510) 874-3258,(510) 586-2743,,rey.belardo@aecom.com
Cabael; Mario,,,,TPS Project Design,,,M-RR-TP-011,,TSE,Traction Power Design Lead,(510) 285-6639 X102,(510) 290-5312,,mario.cabael@tseinc.us
Doss; Brendan,,,,TPS Project Design,,,M-RR-TP-011,,TSE,Traction Power Designer,(510) 285-6639 X116,(510) 309-6109,,brendan.doss@tseinc.us
,,,,,,,,,,,,,,
Ibro Muftic,,,,TPS Project Design,,,,PTG,,Program Manager,(415)407-8893,,,Ibro.Muftic@parsons.com
Zhiming Liu,,,,TPS Project Design,,,,PTG,,Traction Power Design Manager,,,,Zhiming.Liu@parsons.com
Adarsh Kumar Jain,,,,TPS Project Design,,,,PTG,,Integration Manager/Traction Power Engineer,(714)-310-1055,,,Adarsh.Jain@parsons.com
Suresh Shrimavle,,,,TPS Project Design,,,,PTG,,Lead Traction Power Engineer,(949)255-5897,,,Suresh.Shrimavle@parsons.com
Khaled Ibrahim,,,,TPS Project Design,,,,PTG,,Senior Traction Power Engineer,(410) 949-2035,,,Khaled.Ibrahim@parsons.com
David Penrose (Resource Pool),,,,TPS Project Design,,,,PTG,,Senior Traction Power Engineer,(410)200-0529,,,David.Penrose@parsons.com
Caleb Hill,,,,TPS Project Design,,,,PTG,,Traction Power Engineer,(570)447-4657,,,Caleb.Hill@parsons.com
Dora Terry,,,,TPS Project Design,,,,PTG,,Corrosion Control Engineer,(469)929-0823,,,Dora.Terry@parsons.com
Smitesh Sukumar,,,,TPS Project Design,,,,PTG,,Lead Communications Engineer,(646)322-7471,,,Smitesh.Sukumar@parsons.com
Charles Richardson,,,,TPS Project Design,,,,PTG,,Comms Engineer, (510) 907-2171,,,Charles.Richardson@parsons.com
Kimo Okamitso,,,,TPS Project Design,,,,PTG,,Civil/Structural Lead,(925)348-5079,,,Kimo.Okamitsu@parsons.com
Dan Sengupta,,,,TPS Project Design,,,,PTG,,Civil/Structural,(202)775-6075,,,Dan.Sengupta@parsons.com
Weston Hill (Resource Pool),,,,TPS Project Design,,,,PTG,,Civil Engineer,(209)602-3880,,,Weston.Hill@parsons.com
Rebecca Wong,,,,TPS Project Design,,,,PTG,,Specification Writer,(415)699-4324,,,Rebecca.Wong@parsons.com
Helen Chang,,,,TPS Project Design,,,,PTG,,Quality Manager,(281)216-6701,,,Helen.Chang@parsons.com
Yulee Aronson,,,,TPS Project Design,,,,PTG,,Cost Estimator/Scheduling,(518)338-8621,,,Yulee.Aronson@parsons.com
Dickens Liu (Resource Pool),,,,TPS Project Design,,,,PTG,,CADD,(510)907-2157,,,Dickens.Liu@parsons.com
John Cockle,,,,TPS Project Design,,,,PTG,,Safety Manager,(628)220-5683,,,John.Cockle@parsons.com
Sampath Goola,,,,TPS Project Design,,,,PTG,,Utility Coordinator,(510)907-2154,,,sampath.goolla@parsons.com 
Seth Leidy,,,,TPS Project Design,,,,PTG,,Utility Coordinator,(510)406-6042,,,Seth.Leidy@parsons.com
Carie Montero,,,,TPS Project Design,,,,PTG,,Environmental,(510)914-2047,,,Carie.Montero@parsons.com
Larisa Escalle,,,,TPS Project Design,,,,PTG,,Project Controls /Coordination,(510)287-4764,,,Larisa.Escalle@parsons.com
Ted Woods (acting),,,,TPS Project Design,,,,PTG,,Deputy Program Manager,(410)212-4448,,,Ted.Woods@parsons.com
Sharon Sims,,,,TPS Project Design,,,,PTG,,Project Controls,(626)440-4176,,,Sharon.Sims@parsons.com
Nicholas Burkett,,,,TPS Project Design,,,,,360 TC,Document Controls,510.836.0360,,,nick@360tcpr.com
Ismael Okunade (Resource Pool),,,,TPS Project Design,,,,,AEKO,Senior Comms Eng.,(510)763-2356 ,,,iokunade@aeko.com
Gboyega Aladegbami,,,,TPS Project Design,,,,,AEKO,Site Survey,(510)763-2356 ,,,gboyega@aeko.com
Chi-Hsin Shao,,,,TPS Project Design,,,,,CHS,Traffic Planner,415-579-9057 ,,,chshao@chsconsulting.net
Frank Fung,,,,TPS Project Design,,,,,ED2,Architect,(415) 575-2500 ,,,ffung@ed2intl.com
Amir Zand,,,,TPS Project Design,,,,,Earth Mech.,Geotechnical Engineer,(510) 562-8833,,,A.Zand@earthmech.com
James Drenon,,,,TPS Project Design,,,,,RSE,Survey Crew Manager,650.637.9500 ,,,jdrenon@rsecorp.com
,,,,TPS Project Design,,,,,RSE,2- Man Survey Crew,,,,
Donald Chappell,,,,TPS Project Design,,,,,Structus,Senior Structural Engineer,415-399-1710,,,don@structusinc.com
Burhan Surjana,,,,TPS Project Design,,,,,Structus,Structural Engineer,415-399-1710,,,burhan@structusinc.com
Shahin Shiralian,,,,TPS Project Design,,,,,Shiralian CG,Scheduler,510-525-7540,,,shahinshiralian@gmail.com
David Turner,,,,TPS Project Design,,,,,Turner,Engineering Manager,310-915-7601  ,,,dturner@turner-engineering.com
Brandon Wang,,,,TPS Project Design,,,,,Turner,Electrical Engineer,818-455-2853,,,bwhang@turner-engineering.com
Gary Thompson,,,,TPS Project Design,,,,,Turner,Integration Engineer,310-926-7560,,,glthompson@turner-engineering.com
Steven Waters,,,,TPS Project Design,,,,,Turner,Electrical Engineer,925-838-1667,,,waters.home@comcast.net
Wing Lau,,,,TPS Project Design,,,,,Turner,Traction Power Engineer,510-334-6876,,,wlau@atiae.com
Patrick Mallillin,,,,TPS Project Design,,,,,YEI,Lead Mechanical/Electrical,510-957-1613,,,PMallillin@yeiengineers.com
George Chang (Resource Pool),,,,TPS Project Design,,,,,YEI,Electrical (Low Voltage) Engineer,(510) 346-5779,,,gchang@yeiengineers.com
Hubert Hidalgo,,,,TPS Project Design,,,,,YEI,Senior Mechanical ,(510) 346-5779,,,hhidalgo@yeiengineers.com
,,,,,,,,,,,,,,
Read; Aileen,,,,TPS Project Design,,,M-RR-TP-010,WSP,,Principal Engineering Manager PM,415-243-4730,,,aileen.read@wsp.com
Michael; Laurence,,,,TPS Project Design,,,M-RR-TP-010,WSP,,Work Plan Manager,310-743-5968,,,laurence.michael@wsp.com
Murphy; Tony ,,,,TPS Project Design,,,M-RR-TP-010,WSP,,Design Reviews,(415)244-2524,,,tony.murphy@wsp.com
Bellows; Michele ,,,,TPS Project Design,,,M-RR-TP-010,WSP,,,,(415) 243-4788,,michele.bellows@wsp.com
Consolacion; Ben,,,,TPS Project Design,,,M-RR-TP-010,WSP,,Structural,(916) 567-2544,,,ben.consolacion@wsp.com
Harder; Jesse,,,,TPS Project Design,,,M-RR-TP-010,WSP,,Mechanical,(916) 567-2512,,,jesse.harder@wsp.com
Williams; Ryan,,,,TPS Project Design,,,M-RR-TP-010,WSP,,Communications / ETTS,(503) 274-7227,(347) 722-0904,,ryan.williams@wsp.com
Marshall; Jon ,,,,TPS Project Design,,,M-RR-TP-010,,JMA Civil,Civil/Utilities (At-Grade),(925) 400-4356,(510) 541-5883,,jmarshall@jmacivil.com
Zand; Amir,,,,TPS Project Design,,,M-RR-TP-010,,Earth Mch.,,(510) 562-8833,,,a.zand@earthmech.com
Cheung; George ,,,,TPS Project Design,,,M-RR-TP-010,,YEI,Electrical,(510) 957-1600,,,gcheung@yeiengineers.com
Lee; Martin ,,,,TPS Project Design,,,M-RR-TP-010,,M Lee Corp.,Cost Estimating,(415) 693-0236,,,mlee@mleecorp.com
,,,,,,,,,,,,,,
Radstrom; Jonas,Systems Engineering,,,Stakeholder,,,,,,Systems Engineering Group Manager,(510) 287-4868,,,jradstr@bart.gov
Milena; Raul,,Train Control Engineering,,Stakeholder,,,,,,Train Contgrol Engineering Manager,(510) 464-6552,,,rmilena@bart.gov
Riser; Jefre,,Communications Engineering,,Stakeholder,,,,,,Communications Engineering Manager,(510) 464-6522,,,jriser@bart.gov
Ho; Joshua,,,,Discipline point of contact,,,,,,,(510) 464-6802,(510) 847-2558,,
Johnson; Tracy,M&E,Civil Engineering,,Stakeholder,,,,,,Civil Engineering Division Manager,(510) 464-6448,(510) 301-4124,,tjohnso@bart.gov
Houlahan; MaryGrace,M&E,Civil Engineering,,Stakeholder,,,,,,Civil Engineer,(510) 464-6219,,,mhoulih@bart.gov
Shoemaker; Carin,,Operations Liaison,,Discipline point of contact,,,,,,,(510) 287-4946,(510) 910-5168,,
Fok; Erik,M&E,Mgr. Structural Engineering,,Stakeholder,,,,,,Structural Engineering Division Manager,(510) 287-4889,(510) 368-1406,,efok@bart.gov
Wu; Victor,M&E,Structural Engineering,,Discipline point of contact,,,,,,Principal Structural Engineer,(510) 874-7387,(510) 381-9343,,vwu@bart.gov
Marshall; Kirk,Documentation,,,Discipline point of contact,,,,,,Manager - Drafting and Configuration Control,(510) 464-6854,(510) 915-0899,,kmarsha@bart.gov
Restall; Stuart,Documentation - CADD,,,CADD,,,,,,,(510) 464-6868,(510) 406-8165,,srestal@bart.gov
Wong; Franklin,Planning and Development,,,Stakeholder,,,,,,Program Manager; Planning and Development,(510) 287-4799,,,fwong@bart.gov
Anita McReynolds-Lidbury,QA/QC,,,Quality,,,,,,Program Manager QA,(510) 464-6179,(510) 915-1051,,alidbur@bart.gov
Salazar; Ramiro,Legal,,,Stakeholder,,,,,,Senior Attorney - Procurement,(510) 464-4957,(510) 410-8125,,sramiro@bart.gov
Soncuya; James,Office of Civil Rights,,,Stakeholder,,,,,,Mgr of WBE/MBE ,(510) 464-7578,(510) 852-4018,,jsoncuy@bart.gov
Burke; Molly,Community Relations,M; W Lines,,Stakeholder ,,,,,,,(510) 464-6172,(510) 915-7968,,
Richard Fuentes,Community Relations,A; L; WS Lines,,Stakeholder- ,,,,,,,(510) 464-6883,(510) 853-4562,,
Maisha Everhart,Community Relations,R; C  Lines,,Stakeholder,,,,,,,(510) 464-7589,(510) 915-6847,,
Franklin; Kevin,BART Police,,,Stakeholder,,,,,,BART Police,(510) 464-7077,,,kfrankl@bart.gov
Chan; Tim,Manager of Systems Safety,,,Stakeholder,,,,,,Manager of Civil Engineering,(510) 464-4705,(510) 406-8985,,llee@bart.gov
Lee; Linda,M&E,Manager of Civil Engineering,,Discipline point og contact,,,,,,Manager of Civil Engineering,(510) 464-6483,(510) 504-7150,,llee@bart.gov
Wheeler; Wendy,Computer Systems,Div. Mgr of Computer Systems,,Stakeholder,,,,,,Div. Mgr of Computer Systems,(510) 464-6588,(510) 414-5308,,wwheele@bart.gov
Martz; Jeff,Computer Systems,,,Discipline point of contact,,,,,,,(510) 464-7170,(530) 410-4108,,
Lusherovich; Vitaly,,Trac Pwr Maintenance,,Discipline point of contact,,,,,,Manager of Civil Engineering,(510) 464-6483,(510) 815-4693,,llee@bart.gov
Cheves; Eduardo,,Trac Pwr Maintenance,,Stakeholder,,,,,,,,(510) 385-8762,,
Vergara; John,,Trac Pwr Maintenance,,Stakeholder,,,,,,,,(510) 719-6272,,
Parking,,Parking,,Stakeholder,,,,,,,(510) 418-8494,,,awernli@bart.gov
Shafer; Celine,Training,,,Stakeholder,,,,,,,(510) 464-6191,(510) 407-9524,,
Kanu; Oji,Contracts Manager,,,Stakeholder,,,,,,,(510) 464-6554,,,rwieczo@bart.gov
Wieczorek; Richard,Procurement Manager,,,Stakeholder,,,,,,,(510) 464-6380,(510) 368-2401,,rwieczo@bart.gov